Name,Sex,Division,BodyweightKg,WeightClassKg,Squat1Kg,Squat2Kg,Squat3Kg,Best3SquatKg,Bench1Kg,Bench2Kg,Bench3Kg,Best3BenchKg,Deadlift1Kg,Deadlift2Kg,Deadlift3Kg,Best3DeadliftKg,TotalKg,Place,Equipment,Event,BirthDate,BirthYear,Country
Naima Albalushi,F,Open,44.5,47,55,57.5,60,60,27.5,30,32.5,32.5,80,90,95,95,187.5,1,Raw,SBD,,,
Cheryl Kelsall,F,Open,51.7,52,77.5,82.5,87.5,87.5,62.5,-65,65,65,100,-107.5,-107.5,100,252.5,1,Raw,SBD,,,
Sheida Nowbakht,F,Open,50.45,52,82.5,87.5,90,90,-37.5,40,-42.5,40,92.5,100,105,105,235,2,Raw,SBD,,,
Domia Economides,F,Open,54.65,57,120,127.5,132.5,132.5,62.5,65,-67.5,65,115,125,130,130,327.5,1,Raw,SBD,,,
Rebecca McCafferty,F,Open,55.8,57,105,112.5,-115,112.5,52.5,55,-57.5,55,112.5,117.5,-122.5,117.5,285,2,Raw,SBD,,,
Rawan Issa,F,Open,54.9,57,82.5,87.5,-92.5,87.5,45,-47.5,-47.5,45,115,120,125,125,257.5,3,Raw,SBD,,,
Mona Alkoronfily,F,Open,55.35,57,77.5,82.5,87.5,87.5,45,-47.5,-47.5,45,97.5,102.5,-110,102.5,235,4,Raw,SBD,,,
Desiree Rautmann,F,Open,56.7,57,75,-77.5,77.5,77.5,37.5,40,-42.5,40,100,-105,105,105,222.5,5,Raw,SBD,,,
Jenny Fantonial,F,Open,56.5,57,75,80,85,85,25,-30,-30,25,75,82.5,-90,82.5,192.5,6,Raw,SBD,,,
Ine Andersson,F,Open,59.65,63,130,135,140,140,72.5,75,-80,75,125,132.5,140,140,355,1,Raw,SBD,,,
Donya Hancock,F,Open,62.85,63,95,-100,100,100,-55,55,-57.5,55,115,125,130,130,285,2,Raw,SBD,,,
Katie Moore,F,Open,61,63,92.5,97.5,100,100,42.5,47.5,-50,47.5,125,127.5,132.5,132.5,280,3,Raw,SBD,,,
Kiran Kang,F,Open,62,63,77.5,80,82.5,82.5,37.5,-40,-42.5,37.5,-102.5,105,110,110,230,4,Raw,SBD,,,
Szabina Matyas,F,Open,68.2,72,120,127.5,135,135,55,60,65,65,125,135,-142.5,135,335,1,Raw,SBD,,,
Olga Kravchenko,F,Open,66.7,72,107.5,112.5,117.5,117.5,60,62.5,-65,62.5,117.5,122.5,127.5,127.5,307.5,2,Raw,SBD,,,
Olivia McCubbin,F,Open,69.55,72,90,95,100,100,52.5,-55,55,55,117.5,127.5,-132.5,127.5,282.5,3,Raw,SBD,,,
Aisha Khan,F,Open,69.1,72,85,90,95,95,40,42.5,45,45,95,105,112.5,112.5,252.5,4,Raw,SBD,,,
Alison Mclaughlin,F,Open,63.8,72,85,-92.5,92.5,92.5,50,52.5,55,55,92.5,97.5,-102.5,97.5,245,5,Raw,SBD,,,
Tracy Vaughan,F,Open,71.65,72,70,75,-80,75,42.5,45,47.5,47.5,85,92.5,100,100,222.5,6,Raw,SBD,,,
Alya Salem,F,Open,66.7,72,57.5,62.5,-67.5,62.5,42.5,45,-47.5,45,85,90,95,95,202.5,7,Raw,SBD,,,
Sophia Janahi,F,Open,67.15,72,57.5,62.5,67.5,67.5,35,37.5,-40,37.5,-75,80,85,85,190,8,Raw,SBD,,,
Morgan Gladden,F,Open,76.55,84,127.5,137.5,142.5,142.5,72.5,77.5,80,80,145,155,160,160,382.5,1,Raw,SBD,,,
Sara Patterson,F,Open,73.15,84,102.5,112.5,120,120,57.5,60,62.5,62.5,112.5,122.5,130,130,312.5,2,Raw,SBD,,,
Bianca Brown,F,Open,77.6,84,80,87.5,92.5,92.5,45,47.5,50,50,100,107.5,112.5,112.5,255,3,Raw,SBD,,,
Aisha Al Suwaidi,F,Open,115.9,84+,40,45,50,50,42.5,45,-47.5,45,95,105,110,110,205,1,Raw,SBD,,,
Khalifa Al Jamahi,M,Open,62.9,66,-110,115,120,120,110,117.5,120,120,160,170,180,180,420,1,Raw,SBD,,,
Amir Reza Mesforoosh,M,Open,65.8,66,115,122.5,127.5,127.5,97.5,105,110,110,147.5,160,167.5,167.5,405,2,Raw,SBD,,,
Nawaf Younis,M,Open,64.7,66,115,-120,-125,115,92.5,97.5,-102.5,97.5,-157.5,167.5,175,175,387.5,3,Raw,SBD,1997-01-12,,
Mayed Alredha,M,Open,64.9,66,112.5,120,-125,120,102.5,107.5,-110,107.5,-142,152.5,157.5,157.5,385,4,Raw,SBD,,,
Mohammed Al Farsi,M,Open,72.7,74,147.5,155,-160,155,110,115,117.5,117.5,205,212.5,-217.5,212.5,485,1,Raw,SBD,,,
Ameen Osman,M,Open,69.5,74,125,127.5,130,130,97.5,100,102.5,102.5,-175,182.5,185,185,417.5,2,Raw,SBD,,,
Tarek Ahmed,M,Open,72.05,74,130,137.5,-145,137.5,100,-105,-105,100,-150,157.5,165,165,402.5,3,Raw,SBD,,,
Matt Price,M,Open,67.25,74,122.5,132.5,140,140,90,95,-100,95,125,140,155,155,390,4,Raw,SBD,,,
Abdelrahman Basel,M,Open,73.3,74,110,115,122.5,122.5,75,-77.5,77.5,77.5,130,137.5,142.5,142.5,342.5,5,Raw,SBD,,,
Mohammed Al Rashdi,M,Open,71.1,74,105,115,-120,115,60,67.5,-72.5,67.5,145,152.5,-160,152.5,335,6,Raw,SBD,,,
Omar Ahmed Alshehhi,M,Open,73.2,74,85,95,100,100,60,75,77.5,77.5,100,110,120,120,297.5,7,Raw,SBD,,,
Abdulla Al Matrooshi,M,Open,73.4,74,-87.5,90,97.5,97.5,55,60,-62.5,60,115,125,135,135,292.5,8,Raw,SBD,,,
Nicolas Perez #3,M,Open,72.5,74,107.5,112.5,117.5,117.5,-87.5,-87.5,-87.5,,142.5,145,147.5,147.5,,DQ,Raw,SBD,,,
Khalifa Al Hadhrami,M,Open,78,83,205,220,227.5,227.5,132.5,137.5,-140,137.5,255,265,272.5,272.5,637.5,1,Raw,SBD,1996-11-02,,Oman
Jure Smerdelj,M,Open,82.9,83,190,-200,-200,190,-150,150,-155,150,220,-240,-240,220,560,2,Raw,SBD,,,
Joseph Cohen,M,Open,80.5,83,165,175,182.5,182.5,115,122.5,-125,122.5,215,230,-235,230,535,3,Raw,SBD,,,
Omar Basem,M,Open,82.5,83,165,180,190,190,-105,110,-115,110,210,230,-250,230,530,4,Raw,SBD,,,
Rey Sawan,M,Open,82.5,83,165,175,-185,175,107.5,112.5,-115,112.5,210,230,-240,230,517.5,5,Raw,SBD,,,
Mohammad Al Hashemi,M,Open,81,83,175,182.5,190,190,117.5,125,-130,125,195,-205,-205,195,510,6,Raw,SBD,,,
Marcus Flanagan,M,Open,82.3,83,152.5,162.5,170,170,115,122.5,-125,122.5,175,195,207.5,207.5,500,7,Raw,SBD,,,
Ala Daryaei,M,Open,81.6,83,170,-180,-180,170,105,-112.5,112.5,112.5,200,210,-220,210,492.5,8,Raw,SBD,,1996,
Rainier Jeffrey Flores,M,Open,81.1,83,130,140,150,150,90,-100,110,110,160,185,210,210,470,9,Raw,SBD,,,
Yosmel Chiang,M,Open,76.5,83,-120,120,127.5,127.5,-110,115,122.5,122.5,160,180,200,200,450,10,Raw,SBD,,,
Omar Al Saadi,M,Open,81,83,-145,145,152.5,152.5,100,105,110,110,157.5,165,175,175,437.5,11,Raw,SBD,,,
Ghazi Jeiroudi,M,Open,81.1,83,-130,140,-145,140,105,-110,110,110,-150,160,170,170,420,12,Raw,SBD,,,
Frank Mastromauro,M,Open,80.5,83,117.5,127.5,137.5,137.5,87.5,-92.5,-105,87.5,165,172.5,182.5,182.5,407.5,13,Raw,SBD,,,
Abdulla Al Hashimi,M,Open,82.3,83,125,135,-140,135,70,75,-80,75,155,165,-175,165,375,14,Raw,SBD,,,
Syed Obaid,M,Open,74.1,83,115,122.5,127.5,127.5,90,95,97.5,97.5,135,140,145,145,370,15,Raw,SBD,,,
Eugenio Aquino,M,Open,78.2,83,115,-125,-127.5,115,80,-90,-90,80,130,140,-160,140,335,16,Raw,SBD,,,
Omar Massoud,M,Open,77.5,83,-160,170,180,180,-115,-120,-125,,-220,-220,-220,,,DQ,Raw,SBD,,,
Michael Goodwin,M,Open,89.95,93,220,230,240,240,145,-152.5,157.5,157.5,240,252.5,-265,252.5,650,1,Raw,SBD,,,
Nabih Seifeddine,M,Open,91.2,93,202.5,-212.5,212.5,212.5,140,-147.5,147.5,147.5,222.5,235,242.5,242.5,602.5,2,Raw,SBD,,,
Ibrahim Salim Hassan,M,Open,91.5,93,210,222.5,230,230,145,-155,155,155,200,205,-207.5,205,590,3,Raw,SBD,,,
Kenan Saaloukeh,M,Open,92.3,93,185,195,205,205,120,125,-127.5,125,210,220,-225,220,550,4,Raw,SBD,,,
Khalid Ghalib Almansoori,M,Open,92.45,93,165,-170,170,170,137.5,145,-152.5,145,225,-235,235,235,550,5,Raw,SBD,,,
Hammad Mattoo,M,Open,91.25,93,155,162.5,170,170,120,127.5,-132.5,127.5,195,205,215,215,512.5,6,Raw,SBD,,1998,
Turki Alamri,M,Open,88.95,93,152.5,155,167.5,167.5,107.5,115,-117.5,115,170,182.5,190,190,472.5,7,Raw,SBD,,,
Richard Pavitt,M,Open,92.8,93,142.5,152.5,160,160,100,107.5,-112.5,107.5,165,177.5,190,190,457.5,8,Raw,SBD,,,
Sylvester Batista,M,Open,92.7,93,145,155,162.5,162.5,95,102.5,-107.5,102.5,160,172.5,187.5,187.5,452.5,9,Raw,SBD,,,
Abdulrahman Al Saadi,M,Open,89.7,93,135,-145,150,150,-105,112.5,117.5,117.5,165,175,182.5,182.5,450,10,Raw,SBD,,,
George Gordon,M,Open,87.3,93,120,132.5,140,140,75,85,92.5,92.5,140,152.5,157.5,157.5,390,11,Raw,SBD,,,
Kevin Jacob,M,Open,92.7,93,-130,130,135,135,82.5,-87.5,-87.5,82.5,135,140,145,145,362.5,12,Raw,SBD,,,
Shaheer Khan,M,Open,90.2,93,117.5,125,-132.5,125,60,62.5,65,65,135,-137.5,140,140,330,13,Raw,SBD,,,
Chris Patterson,M,Open,103.5,105,245,255,265,265,157.5,165,-167.5,165,255,265,275,275,705,1,Raw,SBD,,,
Marco Cipolat,M,Open,101.75,105,220,230,237.5,237.5,152.5,160,162.5,162.5,255,265,270,270,670,2,Raw,SBD,,,
Talal Al Kindi,M,Open,99.9,105,220,230,235,235,145,152.5,-160,152.5,-255,267.5,-275,267.5,655,3,Raw,SBD,,,
Ahmad Al Hussni,M,Open,101.75,105,200,220,-230,220,150,-160,-160,150,250,260,-270,260,630,4,Raw,SBD,,,
Jonathan Reid,M,Open,96.05,105,160,170,180,180,100,110,117.5,117.5,-200,215,-230,215,512.5,5,Raw,SBD,,,
Raju Pal,M,Open,99.1,105,175,185,-195,185,107.5,115,-120,115,210,-230,-230,210,510,6,Raw,SBD,,,
Chad McLaughlin,M,Open,101.85,105,125,-132.5,-135,125,117.5,122.5,-125,122.5,170,180,187.5,187.5,435,7,Raw,SBD,,,
Abdullah Haj Hussin,M,Open,114.4,120,-260,-260,260,260,185,190,195,195,270,-290,-290,270,725,1,Raw,SBD,,,
Samer Al-Basha,M,Open,112.3,120,220,232.5,240,240,155,162.5,170,170,-250,260,270,270,680,2,Raw,SBD,,,
Ben Malloch,M,Open,110,120,-150,150,162.5,162.5,-105,-110,110,110,195,205,220,220,492.5,3,Raw,SBD,,,
Christian Preece,M,Open,126.1,120+,150,160,170,170,100,-110,110,110,190,200,210,210,490,1,Raw,SBD,,,
Ali Al Haili,M,Open,122.65,120+,-140,140,150,150,100,-105,105,105,130,140,150,150,405,2,Raw,SBD,,,
